src/hw/uut.vcd
$date
	Tue Apr 26 18:58:19 2022
$end
$version
	Icarus Verilog
$end
$timescale
	1s
$end
$scope module test_random_generator $end
$var wire 11 ! rnd_seed [10:0] $end
$var wire 11 " rnd_rnd [10:0] $end
$var reg 1 # clk $end
$var reg 1 $ rnd_en $end
$var reg 1 % rst $end
$scope module create_random_generator_11b $end
$var wire 1 # clk $end
$var wire 1 $ en $end
$var wire 1 % rst $end
$var wire 11 & seed [10:0] $end
$var reg 11 ' rnd [10:0] $end
$upscope $end
$upscope $end
$enddefinitions $end
#0
$dumpvars
b0 '
b10100101010 &
1%
0$
0#
b0 "
b10100101010 !
$end
#5
b10100101010 "
b10100101010 '
1#
#10
0#
#15
1#
#20
0#
#25
b1001010101 "
b1001010101 '
1$
0%
1#
#30
0#
#35
b10010101010 "
b10010101010 '
1#
#40
0#
#45
b101010100 "
b101010100 '
1#
#50
0#
#55
b1010101001 "
b1010101001 '
1#
#60
0#
#65
b10101010011 "
b10101010011 '
1#
#70
0#
#75
b1010100111 "
b1010100111 '
1#
#80
0#
#85
b10101001110 "
b10101001110 '
1#
#90
0#
#95
b1010011101 "
b1010011101 '
1#
#100
0#
#105
b10100111011 "
b10100111011 '
1#
#110
0#
#115
b1001110111 "
b1001110111 '
1#
#120
0#
#125
b10011101111 "
b10011101111 '
1#
#130
0#
#135
b111011110 "
b111011110 '
1#
#140
0#
#145
b1110111101 "
b1110111101 '
1#
#150
0#
#155
b11101111011 "
b11101111011 '
1#
#160
0#
#165
b11011110110 "
b11011110110 '
1#
#170
0#
#175
b10111101101 "
b10111101101 '
1#
#180
0#
#185
b1111011011 "
b1111011011 '
1#
#190
0#
#195
b11110110110 "
b11110110110 '
1#
#200
0#
#205
b11101101101 "
b11101101101 '
1#
#210
0#
#215
b11011011011 "
b11011011011 '
1#
#220
0#
#225
b10110110111 "
b10110110111 '
1#
#230
0#
#235
b1101101110 "
b1101101110 '
1#
#240
0#
#245
b11011011101 "
b11011011101 '
1#
#250
0#
#255
b10110111010 "
b10110111010 '
1#
#260
0#
#265
b1101110100 "
b1101110100 '
1#
#270
0#
#275
b11011101000 "
b11011101000 '
1#
#280
0#
#285
b10111010000 "
b10111010000 '
1#
#290
0#
#295
b1110100001 "
b1110100001 '
1#
#300
0#
#305
b11101000011 "
b11101000011 '
1#
#310
0#
#315
b11010000110 "
b11010000110 '
1#
#320
0#
#325
b10100001101 "
b10100001101 '
1#
#330
0#
#335
b1000011010 "
b1000011010 '
1#
#340
0#
#345
b10000110101 "
b10000110101 '
1#
#350
0#
#355
b1101010 "
b1101010 '
1#
#360
0#
#365
b11010100 "
b11010100 '
1#
#370
0#
#375
b110101000 "
b110101000 '
1#
#380
0#
#385
b1101010000 "
b1101010000 '
1#
#390
0#
#395
b11010100000 "
b11010100000 '
1#
#400
0#
#405
b10101000000 "
b10101000000 '
1#
#410
0#
#415
b1010000000 "
b1010000000 '
1#
#420
0#
#425
b10100000001 "
b10100000001 '
1#
#430
0#
#435
b1000000010 "
b1000000010 '
1#
#440
0#
#445
b10000000101 "
b10000000101 '
1#
#450
0#
#455
b1010 "
b1010 '
1#
#460
0#
#465
b10100 "
b10100 '
1#
#470
0#
#475
b101001 "
b101001 '
1#
#480
0#
#485
b1010011 "
b1010011 '
1#
#490
0#
#495
b10100110 "
b10100110 '
1#
#500
0#
#505
b101001101 "
b101001101 '
1#
#510
0#
#515
b1010011011 "
b1010011011 '
1#
#520
0#
#525
b10100110110 "
b10100110110 '
1#
#530
0#
#535
b1001101101 "
b1001101101 '
1#
#540
0#
#545
b10011011010 "
b10011011010 '
1#
#550
0#
#555
b110110100 "
b110110100 '
1#
#560
0#
#565
b1101101000 "
b1101101000 '
1#
#570
0#
#575
b11011010000 "
b11011010000 '
1#
#580
0#
#585
b10110100000 "
b10110100000 '
1#
#590
0#
#595
b1101000001 "
b1101000001 '
1#
#600
0#
#605
b11010000010 "
b11010000010 '
1#
#610
0#
#615
b10100000101 "
b10100000101 '
1#
#620
0#
#625
b1000001010 "
b1000001010 '
1#
#630
0#
#635
b10000010101 "
b10000010101 '
1#
#640
0#
#645
b101010 "
b101010 '
1#
#650
0#
#655
b1010100 "
b1010100 '
1#
#660
0#
#665
b10101001 "
b10101001 '
1#
#670
0#
#675
b101010010 "
b101010010 '
1#
#680
0#
#685
b1010100100 "
b1010100100 '
1#
#690
0#
#695
b10101001001 "
b10101001001 '
1#
#700
0#
#705
b1010010010 "
b1010010010 '
1#
#710
0#
#715
b10100100100 "
b10100100100 '
1#
#720
0#
#725
b1001001000 "
b1001001000 '
1#
#730
0#
#735
b10010010000 "
b10010010000 '
1#
#740
0#
#745
b100100001 "
b100100001 '
1#
#750
0#
#755
b1001000011 "
b1001000011 '
1#
#760
0#
#765
b10010000111 "
b10010000111 '
1#
#770
0#
#775
b100001110 "
b100001110 '
1#
#780
0#
#785
b1000011100 "
b1000011100 '
1#
#790
0#
#795
b10000111000 "
b10000111000 '
1#
#800
0#
#805
b1110000 "
b1110000 '
1#
#810
0#
#815
b11100001 "
b11100001 '
1#
#820
0#
#825
b111000010 "
b111000010 '
1#
#830
0#
#835
b1110000101 "
b1110000101 '
1#
#840
0#
#845
b11100001011 "
b11100001011 '
1#
#850
0#
#855
b11000010110 "
b11000010110 '
1#
#860
0#
#865
b10000101100 "
b10000101100 '
1#
#870
0#
#875
b1011000 "
b1011000 '
1#
#880
0#
#885
b10110001 "
b10110001 '
1#
#890
0#
#895
b101100010 "
b101100010 '
1#
#900
0#
#905
b1011000100 "
b1011000100 '
1#
#910
0#
#915
b10110001001 "
b10110001001 '
1#
#920
0#
#925
b1100010011 "
b1100010011 '
1#
#930
0#
#935
b11000100111 "
b11000100111 '
1#
#940
0#
#945
b10001001110 "
b10001001110 '
1#
#950
0#
#955
b10011101 "
b10011101 '
1#
#960
0#
#965
b100111010 "
b100111010 '
1#
#970
0#
#975
b1001110100 "
b1001110100 '
1#
#980
0#
#985
b10011101000 "
b10011101000 '
1#
#990
0#
#995
b111010001 "
b111010001 '
1#
#1000
0#
#1005
b1110100010 "
b1110100010 '
1#
#1010
0#
#1015
b11101000100 "
b11101000100 '
1#
#1020
0#
#1025
b11010001001 "
b11010001001 '
1#
